x = 123
#B: 11
Последний элемент B = 31
a^u:  247 39 255 203 145
u:    498 325 177 73 413
Векторы показателей a^u:
[0, 0, 0, 0, 0, 1, 0, 1, 0, 0, 0]
[0, 1, 0, 0, 0, 1, 0, 0, 0, 0, 0]
[0, 1, 1, 0, 0, 0, 1, 0, 0, 0, 0]
[0, 0, 0, 1, 0, 0, 0, 0, 0, 1, 0]
[0, 0, 1, 0, 0, 0, 0, 0, 0, 1, 0]
v = 2
Вектор показателей для b^v: 1 0 0 0 1 0 1 0 0 0 0


