1. база = 2 l_i не вычислено (первый шаг)
1. база = 2 l_i = 61
2. база = 3 l_i = 38
3. база = 5 l_i = 26
4. база = 7 l_i = 21
5. база = 11 l_i = 17
143. база = 823 l_i = 6
d = 2978456713
144. база = 827 l_i = 6
d = 2978456713
145. база = 829 l_i = 6
d = 2978456713
0.0022971630096435547

1. База 2 l_i не вычислено(первый шаг)
1. база = 2 l_i = 130
2. база = 3 l_i = 82
3. база = 5 l_i = 56
4. база = 7 l_i = 46
5. база = 11 l_i = 37
2400. база = 21383 l_i = 9
d = 49281248757482754539
2401. база = 21391 l_i = 9
d = 49281248757482754539
2402. база = 21397 l_i = 9
d = 49281248757482754539
0.08049607276916504

1. База 2 l_i не вычислено(первый шаг)
1. база = 2 l_i = 263
2. база = 3 l_i = 166
3. база = 5 l_i = 113
4. база = 7 l_i = 93
5. база = 11 l_i = 76
59767087. база = 1185631429 l_i = 8
59767088. база = 1185631457 l_i = 8
59767089. база = 1185631463 l_i = 8
